وَيْلٌ لِّكُلِّ هُمَزَةٍ لُّمَزَةٍ
ٱلَّذِى جَمَعَ مَالًا وَعَدَّدَهُۥ
يَحْسَبُ أَنَّ مَالَهُۥٓ أَخْلَدَهُۥ
كَلَّا ۖ لَيُنۢبَذَنَّ فِى ٱلْحُطَمَةِ
وَمَآ أَدْرَىٰكَ مَا ٱلْحُطَمَةُ
نَارُ ٱللَّهِ ٱلْمُوقَدَةُ
ٱلَّتِى تَطَّلِعُ عَلَى ٱلْأَفْـِٔدَةِ
إِنَّهَا عَلَيْهِم مُّؤْصَدَةٌ
فِى عَمَدٍ مُّمَدَّدَةٍۭ