-- Merging decision tree log ---
manifest
ADDED from /Users/finoindrasaputra/Documents/Syariaid/materialdialogslibs/src/main/AndroidManifest.xml:1:1-6:12
INJECTED from /Users/finoindrasaputra/Documents/Syariaid/materialdialogslibs/src/main/AndroidManifest.xml:1:1-6:12
INJECTED from /Users/finoindrasaputra/Documents/Syariaid/materialdialogslibs/src/main/AndroidManifest.xml:1:1-6:12
	package
		ADDED from /Users/finoindrasaputra/Documents/Syariaid/materialdialogslibs/src/main/AndroidManifest.xml:1:11-51
		INJECTED from /Users/finoindrasaputra/Documents/Syariaid/materialdialogslibs/src/main/AndroidManifest.xml
		INJECTED from /Users/finoindrasaputra/Documents/Syariaid/materialdialogslibs/src/main/AndroidManifest.xml
	xmlns:android
		ADDED from /Users/finoindrasaputra/Documents/Syariaid/materialdialogslibs/src/main/AndroidManifest.xml:1:52-110
application
ADDED from /Users/finoindrasaputra/Documents/Syariaid/materialdialogslibs/src/main/AndroidManifest.xml:4:5-20
uses-sdk
INJECTED from /Users/finoindrasaputra/Documents/Syariaid/materialdialogslibs/src/main/AndroidManifest.xml reason: use-sdk injection requested
INJECTED from /Users/finoindrasaputra/Documents/Syariaid/materialdialogslibs/src/main/AndroidManifest.xml
INJECTED from /Users/finoindrasaputra/Documents/Syariaid/materialdialogslibs/src/main/AndroidManifest.xml
INJECTED from /Users/finoindrasaputra/Documents/Syariaid/materialdialogslibs/src/main/AndroidManifest.xml
INJECTED from /Users/finoindrasaputra/Documents/Syariaid/materialdialogslibs/src/main/AndroidManifest.xml
	android:targetSdkVersion
		INJECTED from /Users/finoindrasaputra/Documents/Syariaid/materialdialogslibs/src/main/AndroidManifest.xml
		ADDED from /Users/finoindrasaputra/Documents/Syariaid/materialdialogslibs/src/main/AndroidManifest.xml
		INJECTED from /Users/finoindrasaputra/Documents/Syariaid/materialdialogslibs/src/main/AndroidManifest.xml
	android:minSdkVersion
		INJECTED from /Users/finoindrasaputra/Documents/Syariaid/materialdialogslibs/src/main/AndroidManifest.xml
		ADDED from /Users/finoindrasaputra/Documents/Syariaid/materialdialogslibs/src/main/AndroidManifest.xml
		INJECTED from /Users/finoindrasaputra/Documents/Syariaid/materialdialogslibs/src/main/AndroidManifest.xml
